/* XPM */
static char * title_4_inactive_xpm[] = {
"2 26 3 1",
" 	c None",
".	c #070723",
"+	c #070723",
"..",
"++",
"++",
"++",
"++",
"++",
"++",
"++",
"++",
"++",
"++",
"++",
"++",
"++",
"++",
"++",
"++",
"++",
"++",
"++",
"++",
"++",
"++",
"++",
"++",
"++"};
