<?xml version="1.0" encoding="UTF-8" standalone="no"?>
<svg
   xmlns:dc="http://purl.org/dc/elements/1.1/"
   xmlns:cc="http://creativecommons.org/ns#"
   xmlns:rdf="http://www.w3.org/1999/02/22-rdf-syntax-ns#"
   xmlns:svg="http://www.w3.org/2000/svg"
   xmlns="http://www.w3.org/2000/svg"
   xmlns:sodipodi="http://sodipodi.sourceforge.net/DTD/sodipodi-0.dtd"
   xmlns:inkscape="http://www.inkscape.org/namespaces/inkscape"
   enable-background="new 0 0 32 32"
   height="16"
   id="Layer_1"
   version="1.1"
   viewBox="0 0 16 16"
   width="16"
   xml:space="preserve"
   inkscape:version="0.91 r13725"
   sodipodi:docname="button-bg.svg"><metadata
     id="metadata26"><rdf:RDF><cc:Work
         rdf:about=""><dc:format>image/svg+xml</dc:format><dc:type
           rdf:resource="http://purl.org/dc/dcmitype/StillImage" /><dc:title /></cc:Work></rdf:RDF></metadata><defs
     id="defs24" /><sodipodi:namedview
     pagecolor="#070729"
     bordercolor="#666666"
     borderopacity="1"
     objecttolerance="10"
     gridtolerance="10"
     guidetolerance="10"
     inkscape:pageopacity="0"
     inkscape:pageshadow="2"
     inkscape:window-width="1366"
     inkscape:window-height="718"
     id="namedview22"
     showgrid="true"
     inkscape:zoom="16"
     inkscape:cx="-6.6664673"
     inkscape:cy="4.949103"
     inkscape:window-x="0"
     inkscape:window-y="27"
     inkscape:window-maximized="1"
     inkscape:current-layer="Layer_1"
     inkscape:snap-bbox="true"
     inkscape:bbox-paths="true"
     inkscape:bbox-nodes="true"
     inkscape:snap-bbox-edge-midpoints="true"><inkscape:grid
       type="xygrid"
       id="grid3003"
       empspacing="5"
       visible="true"
       enabled="true"
       snapvisiblegridlinesonly="true" /></sodipodi:namedview><g
     style="display:inline"
     id="titlebutton-close"
     inkscape:label="#g6210"
     transform="translate(-645,185.63782)"><g
       id="g4927-9"
       style="display:inline;opacity:1"
       transform="translate(-678,-432.63782)"><g
         transform="translate(-103,0)"
         style="display:inline;opacity:1"
         id="g4490-6-5-2"><g
           id="g4092-0-2-21-0"
           style="display:inline"
           transform="translate(58,0)"><circle
             r="7"
             cy="255"
             cx="1376"
             style="fill:#808080;fill-opacity:1;stroke:none;stroke-width:0;stroke-linecap:butt;stroke-linejoin:miter;stroke-miterlimit:4;stroke-dasharray:none;stroke-dashoffset:0;stroke-opacity:1"
             id="path4068-7-5-9-6" /></g></g><g
         id="g4778-2-68"
         transform="translate(1323,246.86719)"
         style="fill:#070729;fill-opacity:1"><g
           style="display:inline;fill:#070729;fill-opacity:1"
           id="layer9-9-4-4"
           transform="translate(-60,-518)" /><g
           id="layer10-2-1-8"
           transform="translate(-60,-518)"
           style="fill:#070729;fill-opacity:1" /><g
           id="layer11-16-4-9"
           transform="translate(-60,-518)"
           style="fill:#070729;fill-opacity:1" /><g
           transform="matrix(0.75,0,0,0.75,2,2.0546875)"
           id="g2996-76-5"
           style="fill:#070729;fill-opacity:1"><g
             transform="translate(-60,-518)"
             id="layer12-4-5-7"
             style="fill:#070729;fill-opacity:1"><g
               transform="translate(19,-242)"
               id="layer4-4-1-9-5"
               style="display:inline;fill:#070729;fill-opacity:1" /></g></g><g
           id="layer13-2-6-11"
           transform="translate(-60,-518)"
           style="fill:#070729;fill-opacity:1" /><g
           id="layer14-4-0-33"
           transform="translate(-60,-518)"
           style="fill:#070729;fill-opacity:1" /><g
           id="layer15-7-3-0"
           transform="translate(-60,-518)"
           style="fill:#070729;fill-opacity:1" /></g></g><rect
       y="-185.63782"
       x="645"
       height="16"
       width="16"
       id="rect17883-39"
       style="display:inline;opacity:1;fill:none;fill-opacity:1;stroke:none;stroke-width:1;stroke-linecap:butt;stroke-linejoin:miter;stroke-miterlimit:4;stroke-dasharray:none;stroke-dashoffset:0;stroke-opacity:0" /></g></svg>