<?xml version="1.0" encoding="UTF-8" standalone="no"?>
<!-- Created with Inkscape (http://www.inkscape.org/) -->

<svg
   xmlns:dc="http://purl.org/dc/elements/1.1/"
   xmlns:cc="http://creativecommons.org/ns#"
   xmlns:rdf="http://www.w3.org/1999/02/22-rdf-syntax-ns#"
   xmlns:svg="http://www.w3.org/2000/svg"
   xmlns="http://www.w3.org/2000/svg"
   xmlns:xlink="http://www.w3.org/1999/xlink"
   xmlns:sodipodi="http://sodipodi.sourceforge.net/DTD/sodipodi-0.dtd"
   xmlns:inkscape="http://www.inkscape.org/namespaces/inkscape"
   version="1.1"
   width="64"
   height="22"
   id="svg3273"
   inkscape:version="0.48.2 r9819"
   sodipodi:docname="toggle-on-intl.svg">
  <sodipodi:namedview
     pagecolor="#1e1e1e"
     bordercolor="#bc1010"
     borderopacity="1"
     objecttolerance="10"
     gridtolerance="10"
     guidetolerance="10"
     inkscape:pageopacity="1"
     inkscape:pageshadow="2"
     inkscape:window-width="1920"
     inkscape:window-height="1140"
     id="namedview68"
     showgrid="true"
     showguides="true"
     inkscape:guide-bbox="true"
     inkscape:showpageshadow="false"
     showborder="false"
     inkscape:zoom="2.9928143"
     inkscape:cx="-72.107368"
     inkscape:cy="33.04238"
     inkscape:window-x="0"
     inkscape:window-y="25"
     inkscape:window-maximized="1"
     inkscape:current-layer="layer1">
    <inkscape:grid
       type="xygrid"
       id="grid3045"
       empspacing="8"
       visible="true"
       enabled="true"
       snapvisiblegridlinesonly="true" />
    <sodipodi:guide
       orientation="1,0"
       position="0,11"
       id="guide4468" />
    <sodipodi:guide
       orientation="0,1"
       position="31,22"
       id="guide4470" />
    <sodipodi:guide
       orientation="0,1"
       position="31,0"
       id="guide4472" />
    <sodipodi:guide
       orientation="1,0"
       position="64,13"
       id="guide4474" />
  </sodipodi:namedview>
  <defs
     id="defs3275">
    <linearGradient
       id="linearGradient3988">
      <stop
         id="stop3990"
         offset="0"
         style="stop-color:#000000;stop-opacity:1;" />
      <stop
         style="stop-color:#000000;stop-opacity:0.70588237;"
         offset="0.60000002"
         id="stop3997" />
      <stop
         id="stop3993"
         offset="1"
         style="stop-color:#000000;stop-opacity:0;" />
    </linearGradient>
    <linearGradient
       id="linearGradient3976">
      <stop
         style="stop-color:#ffffff;stop-opacity:1;"
         offset="0"
         id="stop3978" />
      <stop
         id="stop3995"
         offset="0.60000002"
         style="stop-color:#ffffff;stop-opacity:0.70588237;" />
      <stop
         style="stop-color:#ffffff;stop-opacity:0;"
         offset="1"
         id="stop3980" />
    </linearGradient>
    <linearGradient
       id="linearGradient4137">
      <stop
         style="stop-color:#000000;stop-opacity:0.70588237;"
         offset="0"
         id="stop4139" />
      <stop
         style="stop-color:#000000;stop-opacity:0.23529412;"
         offset="1"
         id="stop4141" />
    </linearGradient>
    <linearGradient
       id="linearGradient4114">
      <stop
         id="stop4116"
         style="stop-color:#ffffff;stop-opacity:0.07843138;"
         offset="0" />
      <stop
         id="stop4118"
         style="stop-color:#ffffff;stop-opacity:0.27450982;"
         offset="1" />
    </linearGradient>
    <linearGradient
       inkscape:collect="always"
       id="linearGradient3985">
      <stop
         style="stop-color:#ffffff;stop-opacity:1;"
         offset="0"
         id="stop3987" />
      <stop
         style="stop-color:#ffffff;stop-opacity:0;"
         offset="1"
         id="stop3989" />
    </linearGradient>
    <linearGradient
       id="linearGradient3938">
      <stop
         style="stop-color:#b4b4b4;stop-opacity:1;"
         offset="0"
         id="stop3940" />
      <stop
         style="stop-color:#dcdcdc;stop-opacity:1;"
         offset="1"
         id="stop3942" />
    </linearGradient>
    <linearGradient
       id="linearGradient3892">
      <stop
         style="stop-color:#000000;stop-opacity:1;"
         offset="0"
         id="stop3894" />
      <stop
         style="stop-color:#000000;stop-opacity:0.41984734;"
         offset="1"
         id="stop3896" />
    </linearGradient>
    <linearGradient
       id="linearGradient3866">
      <stop
         offset="0"
         style="stop-color:#c3c3c3;stop-opacity:1;"
         id="stop3868" />
      <stop
         offset="1"
         style="stop-color:#636363;stop-opacity:1;"
         id="stop3870" />
    </linearGradient>
    <linearGradient
       id="linearGradient4063">
      <stop
         id="stop4065"
         style="stop-color:#353535;stop-opacity:1"
         offset="0" />
      <stop
         id="stop4067"
         style="stop-color:#47586e;stop-opacity:1"
         offset="1" />
    </linearGradient>
    <linearGradient
       id="linearGradient3990">
      <stop
         id="stop3992"
         style="stop-color:#ffffff;stop-opacity:1"
         offset="0" />
      <stop
         id="stop3994"
         style="stop-color:#ffffff;stop-opacity:0"
         offset="1" />
    </linearGradient>
    <linearGradient
       id="linearGradient3984">
      <stop
         id="stop3986"
         style="stop-color:#313131;stop-opacity:1"
         offset="0" />
      <stop
         id="stop3988"
         style="stop-color:#5e5e5e;stop-opacity:1"
         offset="1" />
    </linearGradient>
    <linearGradient
       id="linearGradient4095">
      <stop
         id="stop4097"
         style="stop-color:#131313;stop-opacity:1"
         offset="0" />
      <stop
         id="stop4099"
         style="stop-color:#131313;stop-opacity:0"
         offset="1" />
    </linearGradient>
    <linearGradient
       x1="17.371481"
       y1="1.4948978"
       x2="17.306519"
       y2="4.8073978"
       id="linearGradient4561"
       xlink:href="#linearGradient3990"
       gradientUnits="userSpaceOnUse"
       gradientTransform="translate(-63.999996,0)" />
    <linearGradient
       x1="-47.059258"
       y1="20.14957"
       x2="-46.978706"
       y2="1.0181593"
       id="linearGradient4568"
       xlink:href="#linearGradient3984"
       gradientUnits="userSpaceOnUse"
       gradientTransform="matrix(0.9757771,0,0,0.98628529,-0.651405,0.09987579)" />
    <linearGradient
       x1="-17.784681"
       y1="9.8260183"
       x2="-11.504409"
       y2="9.6024895"
       id="linearGradient4572"
       xlink:href="#linearGradient4095"
       gradientUnits="userSpaceOnUse"
       gradientTransform="matrix(0.88797735,0,0,0.87902198,-19.10437,2.3346908)" />
    <linearGradient
       x1="40.624996"
       y1="20.6875"
       x2="40.8125"
       y2="10.5"
       id="linearGradient4576"
       xlink:href="#linearGradient4063"
       gradientUnits="userSpaceOnUse"
       gradientTransform="translate(-63.999996,0)" />
    <linearGradient
       x1="-17.784681"
       y1="9.8260183"
       x2="-11.504409"
       y2="9.6024895"
       id="linearGradient4101"
       xlink:href="#linearGradient4095-3"
       gradientUnits="userSpaceOnUse"
       gradientTransform="matrix(0.88797735,0,0,0.87902198,-19.10437,2.3346908)" />
    <linearGradient
       x1="-47.059258"
       y1="20.14957"
       x2="-46.978706"
       y2="1.0181593"
       id="linearGradient4060"
       xlink:href="#linearGradient4054-9"
       gradientUnits="userSpaceOnUse"
       gradientTransform="matrix(0.9757771,0,0,0.98628529,-0.65140489,0.09987579)" />
    <linearGradient
       id="linearGradient4054-9">
      <stop
         id="stop4056-6"
         style="stop-color:#cdcdcd;stop-opacity:1"
         offset="0" />
      <stop
         id="stop4058-4"
         style="stop-color:#f9f9f9;stop-opacity:1"
         offset="1" />
    </linearGradient>
    <linearGradient
       id="linearGradient4095-3">
      <stop
         id="stop4097-1"
         style="stop-color:#131313;stop-opacity:1"
         offset="0" />
      <stop
         id="stop4099-8"
         style="stop-color:#131313;stop-opacity:0"
         offset="1" />
    </linearGradient>
    <linearGradient
       x1="-47.059258"
       y1="20.14957"
       x2="-46.978706"
       y2="1.0181593"
       id="linearGradient4868"
       xlink:href="#linearGradient4054-9"
       gradientUnits="userSpaceOnUse"
       gradientTransform="matrix(0.9757771,0,0,0.98628529,-3.0264068,-27.657147)" />
    <linearGradient
       x1="-17.784681"
       y1="9.8260183"
       x2="-11.504409"
       y2="9.6024895"
       id="linearGradient4872"
       xlink:href="#linearGradient4095-3"
       gradientUnits="userSpaceOnUse"
       gradientTransform="matrix(0.88797735,0,0,0.87902198,-21.479372,-25.422332)" />
    <linearGradient
       x1="17.371481"
       y1="1.4948978"
       x2="17.306519"
       y2="4.8073978"
       id="linearGradient4909"
       xlink:href="#linearGradient3990"
       gradientUnits="userSpaceOnUse"
       gradientTransform="translate(-63.999996,0)" />
    <linearGradient
       x1="-47.059258"
       y1="20.14957"
       x2="-46.978706"
       y2="1.0181593"
       id="linearGradient4916"
       xlink:href="#linearGradient3984"
       gradientUnits="userSpaceOnUse"
       gradientTransform="matrix(0.9757771,0,0,0.98628529,-0.651405,0.09987579)" />
    <linearGradient
       x1="-17.784681"
       y1="9.8260183"
       x2="-11.504409"
       y2="9.6024895"
       id="linearGradient4920"
       xlink:href="#linearGradient4095"
       gradientUnits="userSpaceOnUse"
       gradientTransform="matrix(0.88797735,0,0,0.87902198,-19.10437,2.3346908)" />
    <linearGradient
       x1="40.624996"
       y1="20.6875"
       x2="40.8125"
       y2="10.5"
       id="linearGradient4924"
       xlink:href="#linearGradient4063"
       gradientUnits="userSpaceOnUse"
       gradientTransform="translate(-63.999996,0)" />
    <clipPath
       clipPathUnits="userSpaceOnUse"
       id="clipPath3876">
      <rect
         width="64"
         height="19.999994"
         rx="2.5"
         ry="2.5"
         x="-64"
         y="1"
         id="rect3878"
         style="color:#000000;fill:#ff00ff;fill-opacity:1;stroke:none;stroke-width:0.99999994;marker:none;visibility:visible;display:inline;overflow:visible;enable-background:accumulate" />
    </clipPath>
    <linearGradient
       inkscape:collect="always"
       xlink:href="#linearGradient3892"
       id="linearGradient3898"
       x1="-46"
       y1="1"
       x2="-46"
       y2="21"
       gradientUnits="userSpaceOnUse" />
    <linearGradient
       inkscape:collect="always"
       xlink:href="#linearGradient4114"
       id="linearGradient3086"
       gradientUnits="userSpaceOnUse"
       gradientTransform="translate(-64.499996,-20.499994)"
       x1="40.8125"
       y1="19.5"
       x2="40.8125"
       y2="-0.5" />
    <clipPath
       clipPathUnits="userSpaceOnUse"
       id="clipPath3097">
      <rect
         y="-2"
         x="-8"
         height="27"
         width="48"
         id="rect3099"
         style="opacity:0.25;color:#000000;fill:#ff00ff;fill-opacity:1;fill-rule:nonzero;stroke:none;stroke-width:2;marker:none;visibility:visible;display:inline;overflow:visible;enable-background:accumulate" />
    </clipPath>
    <linearGradient
       inkscape:collect="always"
       xlink:href="#linearGradient3985"
       id="linearGradient3072"
       gradientUnits="userSpaceOnUse"
       gradientTransform="translate(40,0)"
       x1="45"
       y1="2"
       x2="45"
       y2="29" />
    <linearGradient
       inkscape:collect="always"
       xlink:href="#linearGradient3938"
       id="linearGradient3075"
       gradientUnits="userSpaceOnUse"
       x1="48"
       y1="21"
       x2="48"
       y2="2" />
    <linearGradient
       inkscape:collect="always"
       xlink:href="#linearGradient3990"
       id="linearGradient3851"
       x1="41"
       y1="1"
       x2="41"
       y2="28"
       gradientUnits="userSpaceOnUse" />
    <linearGradient
       inkscape:collect="always"
       xlink:href="#linearGradient3938"
       id="linearGradient3855"
       gradientUnits="userSpaceOnUse"
       x1="48"
       y1="21"
       x2="48"
       y2="2"
       gradientTransform="translate(-3,0)" />
    <linearGradient
       inkscape:collect="always"
       xlink:href="#linearGradient3938"
       id="linearGradient3859"
       gradientUnits="userSpaceOnUse"
       x1="48"
       y1="21"
       x2="48"
       y2="2" />
    <radialGradient
       inkscape:collect="always"
       xlink:href="#linearGradient3976"
       id="radialGradient3982"
       cx="42.5"
       cy="11"
       fx="42.5"
       fy="11"
       r="0.5"
       gradientTransform="matrix(11,0,0,10,-423,-99)"
       gradientUnits="userSpaceOnUse" />
    <radialGradient
       inkscape:collect="always"
       xlink:href="#linearGradient3988"
       id="radialGradient3986"
       gradientUnits="userSpaceOnUse"
       gradientTransform="matrix(11,0,0,10,-424,-99)"
       cx="42.5"
       cy="11"
       fx="42.5"
       fy="11"
       r="0.5" />
    <radialGradient
       inkscape:collect="always"
       xlink:href="#linearGradient3976"
       id="radialGradient4003"
       gradientUnits="userSpaceOnUse"
       gradientTransform="matrix(11,0,0,10,-419,-99)"
       cx="42.5"
       cy="11"
       fx="42.5"
       fy="11"
       r="0.5" />
    <radialGradient
       inkscape:collect="always"
       xlink:href="#linearGradient3988"
       id="radialGradient4005"
       gradientUnits="userSpaceOnUse"
       gradientTransform="matrix(11,0,0,10,-420,-99)"
       cx="42.5"
       cy="11"
       fx="42.5"
       fy="11"
       r="0.5" />
    <radialGradient
       inkscape:collect="always"
       xlink:href="#linearGradient3976"
       id="radialGradient4011"
       gradientUnits="userSpaceOnUse"
       gradientTransform="matrix(11,0,0,10,-415,-99)"
       cx="42.5"
       cy="11"
       fx="42.5"
       fy="11"
       r="0.5" />
    <radialGradient
       inkscape:collect="always"
       xlink:href="#linearGradient3988"
       id="radialGradient4013"
       gradientUnits="userSpaceOnUse"
       gradientTransform="matrix(11,0,0,10,-416,-99)"
       cx="42.5"
       cy="11"
       fx="42.5"
       fy="11"
       r="0.5" />
    <linearGradient
       inkscape:collect="always"
       xlink:href="#linearGradient3985-3"
       id="linearGradient4074"
       gradientUnits="userSpaceOnUse"
       gradientTransform="matrix(1,0,0,-1,-32,21)"
       x1="48"
       y1="21"
       x2="48"
       y2="-4" />
    <linearGradient
       inkscape:collect="always"
       id="linearGradient3985-3">
      <stop
         style="stop-color:#ffffff;stop-opacity:1;"
         offset="0"
         id="stop3987-1" />
      <stop
         style="stop-color:#ffffff;stop-opacity:0;"
         offset="1"
         id="stop3989-8" />
    </linearGradient>
    <radialGradient
       inkscape:collect="always"
       xlink:href="#linearGradient3988-1"
       id="radialGradient4013-0"
       gradientUnits="userSpaceOnUse"
       gradientTransform="matrix(11,0,0,10,-512,-99)"
       cx="42.5"
       cy="11"
       fx="42.5"
       fy="11"
       r="0.5" />
    <linearGradient
       id="linearGradient3988-1">
      <stop
         id="stop3990-7"
         offset="0"
         style="stop-color:#000000;stop-opacity:1;" />
      <stop
         style="stop-color:#000000;stop-opacity:0.70588237;"
         offset="0.60000002"
         id="stop3997-9" />
      <stop
         id="stop3993-1"
         offset="1"
         style="stop-color:#000000;stop-opacity:0;" />
    </linearGradient>
    <radialGradient
       inkscape:collect="always"
       xlink:href="#linearGradient3976-3"
       id="radialGradient4011-0"
       gradientUnits="userSpaceOnUse"
       gradientTransform="matrix(11,0,0,10,-511,-99)"
       cx="42.5"
       cy="11"
       fx="42.5"
       fy="11"
       r="0.5" />
    <linearGradient
       id="linearGradient3976-3">
      <stop
         style="stop-color:#ffffff;stop-opacity:1;"
         offset="0"
         id="stop3978-5" />
      <stop
         id="stop3995-9"
         offset="0.60000002"
         style="stop-color:#ffffff;stop-opacity:0.70588237;" />
      <stop
         style="stop-color:#ffffff;stop-opacity:0;"
         offset="1"
         id="stop3980-4" />
    </linearGradient>
    <radialGradient
       inkscape:collect="always"
       xlink:href="#linearGradient3988-1"
       id="radialGradient4005-8"
       gradientUnits="userSpaceOnUse"
       gradientTransform="matrix(11,0,0,10,-516,-99)"
       cx="42.5"
       cy="11"
       fx="42.5"
       fy="11"
       r="0.5" />
    <linearGradient
       id="linearGradient4101-4">
      <stop
         id="stop4103"
         offset="0"
         style="stop-color:#000000;stop-opacity:1;" />
      <stop
         style="stop-color:#000000;stop-opacity:0.70588237;"
         offset="0.60000002"
         id="stop4105" />
      <stop
         id="stop4107"
         offset="1"
         style="stop-color:#000000;stop-opacity:0;" />
    </linearGradient>
    <radialGradient
       inkscape:collect="always"
       xlink:href="#linearGradient3976-3"
       id="radialGradient4003-6"
       gradientUnits="userSpaceOnUse"
       gradientTransform="matrix(11,0,0,10,-451,-100)"
       cx="42.5"
       cy="11"
       fx="42.5"
       fy="11"
       r="0.5" />
    <linearGradient
       id="linearGradient4110">
      <stop
         style="stop-color:#ffffff;stop-opacity:1;"
         offset="0"
         id="stop4112" />
      <stop
         id="stop4114"
         offset="0.60000002"
         style="stop-color:#ffffff;stop-opacity:0.70588237;" />
      <stop
         style="stop-color:#ffffff;stop-opacity:0;"
         offset="1"
         id="stop4116-9" />
    </linearGradient>
    <radialGradient
       inkscape:collect="always"
       xlink:href="#linearGradient3988-1"
       id="radialGradient3986-2"
       gradientUnits="userSpaceOnUse"
       gradientTransform="matrix(11,0,0,10,-520,-99)"
       cx="42.5"
       cy="11"
       fx="42.5"
       fy="11"
       r="0.5" />
    <linearGradient
       id="linearGradient4119">
      <stop
         id="stop4121"
         offset="0"
         style="stop-color:#000000;stop-opacity:1;" />
      <stop
         style="stop-color:#000000;stop-opacity:0.70588237;"
         offset="0.60000002"
         id="stop4123" />
      <stop
         id="stop4125"
         offset="1"
         style="stop-color:#000000;stop-opacity:0;" />
    </linearGradient>
    <radialGradient
       r="0.5"
       fy="11"
       fx="42.5"
       cy="11"
       cx="42.5"
       gradientTransform="matrix(11,0,0,10,-455,-100)"
       gradientUnits="userSpaceOnUse"
       id="radialGradient4077"
       xlink:href="#linearGradient3976-3"
       inkscape:collect="always" />
    <linearGradient
       id="linearGradient4128">
      <stop
         style="stop-color:#ffffff;stop-opacity:1;"
         offset="0"
         id="stop4130" />
      <stop
         id="stop4132"
         offset="0.60000002"
         style="stop-color:#ffffff;stop-opacity:0.70588237;" />
      <stop
         style="stop-color:#ffffff;stop-opacity:0;"
         offset="1"
         id="stop4134" />
    </linearGradient>
    <linearGradient
       y2="39"
       x2="41"
       y1="1"
       x1="41"
       gradientUnits="userSpaceOnUse"
       id="linearGradient3077-4"
       xlink:href="#linearGradient4095-9"
       inkscape:collect="always"
       gradientTransform="matrix(1,0,0,-1,-32,21)" />
    <linearGradient
       id="linearGradient4095-9">
      <stop
         id="stop4097-0"
         style="stop-color:#131313;stop-opacity:1"
         offset="0" />
      <stop
         id="stop4099-3"
         style="stop-color:#131313;stop-opacity:0"
         offset="1" />
    </linearGradient>
    <linearGradient
       inkscape:collect="always"
       xlink:href="#linearGradient3938-0"
       id="linearGradient3128"
       gradientUnits="userSpaceOnUse"
       gradientTransform="translate(-32,0)"
       x1="48"
       y1="21"
       x2="48"
       y2="2" />
    <linearGradient
       id="linearGradient3938-0">
      <stop
         style="stop-color:#a0a0a0;stop-opacity:1;"
         offset="0"
         id="stop3940-3" />
      <stop
         style="stop-color:#dcdcdc;stop-opacity:1;"
         offset="1"
         id="stop3942-3" />
    </linearGradient>
    <linearGradient
       y2="2"
       x2="48"
       y1="21"
       x1="48"
       gradientTransform="translate(-32,-1)"
       gradientUnits="userSpaceOnUse"
       id="linearGradient4156"
       xlink:href="#linearGradient3938-0"
       inkscape:collect="always" />
    <linearGradient
       inkscape:collect="always"
       xlink:href="#linearGradient3938-0"
       id="linearGradient4075"
       gradientUnits="userSpaceOnUse"
       gradientTransform="translate(-96,0)"
       x1="48"
       y1="21"
       x2="48"
       y2="2" />
    <linearGradient
       inkscape:collect="always"
       xlink:href="#linearGradient4095-9"
       id="linearGradient4077"
       gradientUnits="userSpaceOnUse"
       gradientTransform="matrix(-1,0,0,-1,96,22)"
       x1="41"
       y1="1"
       x2="41"
       y2="39" />
    <radialGradient
       inkscape:collect="always"
       xlink:href="#linearGradient3976-3"
       id="radialGradient4079"
       gradientUnits="userSpaceOnUse"
       gradientTransform="matrix(11,0,0,10,-519,-99)"
       cx="42.5"
       cy="11"
       fx="42.5"
       fy="11"
       r="0.5" />
    <radialGradient
       inkscape:collect="always"
       xlink:href="#linearGradient3976-3"
       id="radialGradient4081"
       gradientUnits="userSpaceOnUse"
       gradientTransform="matrix(11,0,0,10,-515,-99)"
       cx="42.5"
       cy="11"
       fx="42.5"
       fy="11"
       r="0.5" />
    <linearGradient
       inkscape:collect="always"
       xlink:href="#linearGradient3985-3"
       id="linearGradient4083"
       gradientUnits="userSpaceOnUse"
       gradientTransform="matrix(-1,0,0,-1,96,22)"
       x1="48"
       y1="21"
       x2="48"
       y2="-4" />
    <linearGradient
       inkscape:collect="always"
       xlink:href="#linearGradient3985-3-0"
       id="linearGradient4083-0"
       gradientUnits="userSpaceOnUse"
       gradientTransform="matrix(-1,0,0,-1,96,22)"
       x1="48"
       y1="21"
       x2="48"
       y2="-4" />
    <linearGradient
       inkscape:collect="always"
       id="linearGradient3985-3-0">
      <stop
         style="stop-color:#ffffff;stop-opacity:1;"
         offset="0"
         id="stop3987-1-2" />
      <stop
         style="stop-color:#ffffff;stop-opacity:0;"
         offset="1"
         id="stop3989-8-2" />
    </linearGradient>
    <radialGradient
       inkscape:collect="always"
       xlink:href="#linearGradient3988-1-4"
       id="radialGradient4013-0-2"
       gradientUnits="userSpaceOnUse"
       gradientTransform="matrix(11,0,0,10,-416,-99)"
       cx="42.5"
       cy="11"
       fx="42.5"
       fy="11"
       r="0.5" />
    <linearGradient
       id="linearGradient3988-1-4">
      <stop
         id="stop3990-7-7"
         offset="0"
         style="stop-color:#000000;stop-opacity:1;" />
      <stop
         style="stop-color:#000000;stop-opacity:0.70588237;"
         offset="0.60000002"
         id="stop3997-9-9" />
      <stop
         id="stop3993-1-8"
         offset="1"
         style="stop-color:#000000;stop-opacity:0;" />
    </linearGradient>
    <radialGradient
       inkscape:collect="always"
       xlink:href="#linearGradient3976-3-4"
       id="radialGradient4011-0-5"
       gradientUnits="userSpaceOnUse"
       gradientTransform="matrix(11,0,0,10,-415,-99)"
       cx="42.5"
       cy="11"
       fx="42.5"
       fy="11"
       r="0.5" />
    <linearGradient
       id="linearGradient3976-3-4">
      <stop
         style="stop-color:#ffffff;stop-opacity:1;"
         offset="0"
         id="stop3978-5-7" />
      <stop
         id="stop3995-9-8"
         offset="0.60000002"
         style="stop-color:#ffffff;stop-opacity:0.70588237;" />
      <stop
         style="stop-color:#ffffff;stop-opacity:0;"
         offset="1"
         id="stop3980-4-6" />
    </linearGradient>
    <radialGradient
       inkscape:collect="always"
       xlink:href="#linearGradient3988-1-4"
       id="radialGradient4005-8-0"
       gradientUnits="userSpaceOnUse"
       gradientTransform="matrix(11,0,0,10,-420,-99)"
       cx="42.5"
       cy="11"
       fx="42.5"
       fy="11"
       r="0.5" />
    <linearGradient
       id="linearGradient4110-0">
      <stop
         id="stop4112-6"
         offset="0"
         style="stop-color:#000000;stop-opacity:1;" />
      <stop
         style="stop-color:#000000;stop-opacity:0.70588237;"
         offset="0.60000002"
         id="stop4114-4" />
      <stop
         id="stop4116-3"
         offset="1"
         style="stop-color:#000000;stop-opacity:0;" />
    </linearGradient>
    <radialGradient
       inkscape:collect="always"
       xlink:href="#linearGradient3976-3-4"
       id="radialGradient4081-7"
       gradientUnits="userSpaceOnUse"
       gradientTransform="matrix(11,0,0,10,-419,-99)"
       cx="42.5"
       cy="11"
       fx="42.5"
       fy="11"
       r="0.5" />
    <linearGradient
       id="linearGradient4119-5">
      <stop
         style="stop-color:#ffffff;stop-opacity:1;"
         offset="0"
         id="stop4121-8" />
      <stop
         id="stop4123-1"
         offset="0.60000002"
         style="stop-color:#ffffff;stop-opacity:0.70588237;" />
      <stop
         style="stop-color:#ffffff;stop-opacity:0;"
         offset="1"
         id="stop4125-0" />
    </linearGradient>
    <radialGradient
       inkscape:collect="always"
       xlink:href="#linearGradient3988-1-4"
       id="radialGradient3986-2-9"
       gradientUnits="userSpaceOnUse"
       gradientTransform="matrix(11,0,0,10,-424,-99)"
       cx="42.5"
       cy="11"
       fx="42.5"
       fy="11"
       r="0.5" />
    <linearGradient
       id="linearGradient4128-3">
      <stop
         id="stop4130-0"
         offset="0"
         style="stop-color:#000000;stop-opacity:1;" />
      <stop
         style="stop-color:#000000;stop-opacity:0.70588237;"
         offset="0.60000002"
         id="stop4132-2" />
      <stop
         id="stop4134-6"
         offset="1"
         style="stop-color:#000000;stop-opacity:0;" />
    </linearGradient>
    <radialGradient
       inkscape:collect="always"
       xlink:href="#linearGradient3976-3-4"
       id="radialGradient4079-4"
       gradientUnits="userSpaceOnUse"
       gradientTransform="matrix(11,0,0,10,-423,-99)"
       cx="42.5"
       cy="11"
       fx="42.5"
       fy="11"
       r="0.5" />
    <linearGradient
       id="linearGradient4137-3">
      <stop
         style="stop-color:#ffffff;stop-opacity:1;"
         offset="0"
         id="stop4139-8" />
      <stop
         id="stop4141-6"
         offset="0.60000002"
         style="stop-color:#ffffff;stop-opacity:0.70588237;" />
      <stop
         style="stop-color:#ffffff;stop-opacity:0;"
         offset="1"
         id="stop4143" />
    </linearGradient>
    <linearGradient
       inkscape:collect="always"
       xlink:href="#linearGradient4095-9-0"
       id="linearGradient4077-7"
       gradientUnits="userSpaceOnUse"
       gradientTransform="matrix(-1,0,0,-1,96,22)"
       x1="41"
       y1="1"
       x2="41"
       y2="39" />
    <linearGradient
       id="linearGradient4095-9-0">
      <stop
         id="stop4097-0-8"
         style="stop-color:#131313;stop-opacity:1"
         offset="0" />
      <stop
         id="stop4099-3-1"
         style="stop-color:#131313;stop-opacity:0"
         offset="1" />
    </linearGradient>
    <linearGradient
       inkscape:collect="always"
       xlink:href="#linearGradient3938-0-8"
       id="linearGradient4075-9"
       gradientUnits="userSpaceOnUse"
       gradientTransform="translate(-96,0)"
       x1="48"
       y1="21"
       x2="48"
       y2="2" />
    <linearGradient
       id="linearGradient3938-0-8">
      <stop
         style="stop-color:#a0a0a0;stop-opacity:1;"
         offset="0"
         id="stop3940-3-1" />
      <stop
         style="stop-color:#dcdcdc;stop-opacity:1;"
         offset="1"
         id="stop3942-3-6" />
    </linearGradient>
    <linearGradient
       y2="2"
       x2="48"
       y1="21"
       x1="48"
       gradientTransform="translate(-96,0)"
       gradientUnits="userSpaceOnUse"
       id="linearGradient4165"
       xlink:href="#linearGradient3938-0-8"
       inkscape:collect="always" />
    <linearGradient
       inkscape:collect="always"
       xlink:href="#linearGradient3938-9"
       id="linearGradient3944"
       x1="48"
       y1="21"
       x2="48"
       y2="2"
       gradientUnits="userSpaceOnUse" />
    <linearGradient
       id="linearGradient3938-9">
      <stop
         style="stop-color:#b4b4b4;stop-opacity:1;"
         offset="0"
         id="stop3940-1" />
      <stop
         style="stop-color:#dcdcdc;stop-opacity:1;"
         offset="1"
         id="stop3942-7" />
    </linearGradient>
    <linearGradient
       inkscape:collect="always"
       xlink:href="#linearGradient3985-5"
       id="linearGradient3991"
       x1="45"
       y1="2"
       x2="45"
       y2="29"
       gradientUnits="userSpaceOnUse"
       gradientTransform="translate(40,0)" />
    <linearGradient
       inkscape:collect="always"
       id="linearGradient3985-5">
      <stop
         style="stop-color:#ffffff;stop-opacity:1;"
         offset="0"
         id="stop3987-7" />
      <stop
         style="stop-color:#ffffff;stop-opacity:0;"
         offset="1"
         id="stop3989-6" />
    </linearGradient>
    <linearGradient
       inkscape:collect="always"
       xlink:href="#linearGradient4137-2"
       id="linearGradient4143"
       x1="48"
       y1="6"
       x2="48"
       y2="16"
       gradientUnits="userSpaceOnUse" />
    <linearGradient
       id="linearGradient4137-2">
      <stop
         style="stop-color:#000000;stop-opacity:0.70588237;"
         offset="0"
         id="stop4139-4" />
      <stop
         style="stop-color:#000000;stop-opacity:0.23529412;"
         offset="1"
         id="stop4141-2" />
    </linearGradient>
    <linearGradient
       inkscape:collect="always"
       xlink:href="#linearGradient4137-2"
       id="linearGradient4164"
       gradientUnits="userSpaceOnUse"
       x1="48"
       y1="6"
       x2="48"
       y2="16" />
    <linearGradient
       id="linearGradient3083">
      <stop
         style="stop-color:#000000;stop-opacity:0.70588237;"
         offset="0"
         id="stop3085" />
      <stop
         style="stop-color:#000000;stop-opacity:0.23529412;"
         offset="1"
         id="stop3087" />
    </linearGradient>
    <linearGradient
       inkscape:collect="always"
       xlink:href="#linearGradient4137-2"
       id="linearGradient4350"
       gradientUnits="userSpaceOnUse"
       x1="48"
       y1="6"
       x2="48"
       y2="16"
       gradientTransform="translate(0,30)" />
    <linearGradient
       inkscape:collect="always"
       xlink:href="#linearGradient4137-2"
       id="linearGradient4353"
       gradientUnits="userSpaceOnUse"
       x1="48"
       y1="6"
       x2="48"
       y2="16"
       gradientTransform="translate(0,30)" />
    <linearGradient
       inkscape:collect="always"
       xlink:href="#linearGradient3985-5"
       id="linearGradient4359"
       gradientUnits="userSpaceOnUse"
       gradientTransform="translate(40,0)"
       x1="45"
       y1="2"
       x2="45"
       y2="29" />
    <linearGradient
       inkscape:collect="always"
       xlink:href="#linearGradient3938-9"
       id="linearGradient4362"
       gradientUnits="userSpaceOnUse"
       x1="48"
       y1="21"
       x2="48"
       y2="2" />
    <linearGradient
       inkscape:collect="always"
       xlink:href="#linearGradient4114"
       id="linearGradient4371"
       gradientUnits="userSpaceOnUse"
       gradientTransform="translate(-64.499996,-20.499994)"
       x1="40.8125"
       y1="19.5"
       x2="40.8125"
       y2="-0.5" />
    <filter
       color-interpolation-filters="sRGB"
       inkscape:collect="always"
       id="filter4199-9"
       x="-0.25999999"
       width="1.52"
       y="-0.078000002"
       height="1.156">
      <feGaussianBlur
         inkscape:collect="always"
         stdDeviation="0.325"
         id="feGaussianBlur4201-6" />
    </filter>
    <linearGradient
       inkscape:collect="always"
       xlink:href="#linearGradient3921-5"
       id="linearGradient4550"
       gradientUnits="userSpaceOnUse"
       gradientTransform="matrix(-1,0,0,-1,64.499996,20.499994)"
       x1="40.8125"
       y1="18.499994"
       x2="40.8125"
       y2="0.49999401" />
    <linearGradient
       id="linearGradient3921-5">
      <stop
         offset="0"
         style="stop-color:#ffffff;stop-opacity:0;"
         id="stop3923-6" />
      <stop
         offset="1"
         style="stop-color:#ffffff;stop-opacity:0.15686275;"
         id="stop3925-4" />
    </linearGradient>
    <linearGradient
       y2="0.49999401"
       x2="40.8125"
       y1="18.499994"
       x1="40.8125"
       gradientTransform="matrix(-1,0,0,-1,64.499996,20.499994)"
       gradientUnits="userSpaceOnUse"
       id="linearGradient4572-4"
       xlink:href="#linearGradient3921-5"
       inkscape:collect="always" />
    <linearGradient
       y2="0.49999401"
       x2="40.8125"
       y1="18.499994"
       x1="40.8125"
       gradientTransform="matrix(-1,0,0,-1,64.499996,20.499994)"
       gradientUnits="userSpaceOnUse"
       id="linearGradient4572-4-7"
       xlink:href="#linearGradient3921-5-9"
       inkscape:collect="always" />
    <linearGradient
       id="linearGradient3921-5-9">
      <stop
         offset="0"
         style="stop-color:#226ebf;stop-opacity:1;"
         id="stop3923-6-1" />
      <stop
         offset="1"
         style="stop-color:#226ebf;stop-opacity:1;"
         id="stop3925-4-6" />
    </linearGradient>
    <linearGradient
       y2="0.49999401"
       x2="40.8125"
       y1="18.499994"
       x1="40.8125"
       gradientTransform="matrix(-1,0,0,-1,64.499996,20.499994)"
       gradientUnits="userSpaceOnUse"
       id="linearGradient4443"
       xlink:href="#linearGradient3921-5-9"
       inkscape:collect="always" />
    <radialGradient
       inkscape:collect="always"
       xlink:href="#linearGradient3988-5-7"
       id="radialGradient4013-9-2"
       gradientUnits="userSpaceOnUse"
       gradientTransform="matrix(11,0,0,10,-417,-99)"
       cx="42.5"
       cy="11"
       fx="42.5"
       fy="11"
       r="0.5" />
    <linearGradient
       id="linearGradient3988-5-7">
      <stop
         id="stop3990-8-2"
         offset="0"
         style="stop-color:#000000;stop-opacity:1;" />
      <stop
         style="stop-color:#000000;stop-opacity:0.70588237;"
         offset="0.60000002"
         id="stop3997-5-7" />
      <stop
         id="stop3993-8-6"
         offset="1"
         style="stop-color:#000000;stop-opacity:0;" />
    </linearGradient>
    <radialGradient
       inkscape:collect="always"
       xlink:href="#linearGradient3976-2-0"
       id="radialGradient4011-7-2"
       gradientUnits="userSpaceOnUse"
       gradientTransform="matrix(11,0,0,10,-416,-99)"
       cx="42.5"
       cy="11"
       fx="42.5"
       fy="11"
       r="0.5" />
    <linearGradient
       id="linearGradient3976-2-0">
      <stop
         style="stop-color:#ffffff;stop-opacity:1;"
         offset="0"
         id="stop3978-8-5" />
      <stop
         id="stop3995-9-0"
         offset="0.60000002"
         style="stop-color:#ffffff;stop-opacity:0.70588237;" />
      <stop
         style="stop-color:#ffffff;stop-opacity:0;"
         offset="1"
         id="stop3980-6-1" />
    </linearGradient>
    <radialGradient
       inkscape:collect="always"
       xlink:href="#linearGradient3988-5-7"
       id="radialGradient4005-9-8"
       gradientUnits="userSpaceOnUse"
       gradientTransform="matrix(11,0,0,10,-421,-99)"
       cx="42.5"
       cy="11"
       fx="42.5"
       fy="11"
       r="0.5" />
    <linearGradient
       id="linearGradient4595">
      <stop
         id="stop4597"
         offset="0"
         style="stop-color:#000000;stop-opacity:1;" />
      <stop
         style="stop-color:#000000;stop-opacity:0.70588237;"
         offset="0.60000002"
         id="stop4599" />
      <stop
         id="stop4601"
         offset="1"
         style="stop-color:#000000;stop-opacity:0;" />
    </linearGradient>
    <radialGradient
       inkscape:collect="always"
       xlink:href="#linearGradient3976-2-0"
       id="radialGradient4003-1-6"
       gradientUnits="userSpaceOnUse"
       gradientTransform="matrix(11,0,0,10,-420,-99)"
       cx="42.5"
       cy="11"
       fx="42.5"
       fy="11"
       r="0.5" />
    <linearGradient
       id="linearGradient4604">
      <stop
         style="stop-color:#ffffff;stop-opacity:1;"
         offset="0"
         id="stop4606" />
      <stop
         id="stop4608"
         offset="0.60000002"
         style="stop-color:#ffffff;stop-opacity:0.70588237;" />
      <stop
         style="stop-color:#ffffff;stop-opacity:0;"
         offset="1"
         id="stop4610" />
    </linearGradient>
    <radialGradient
       inkscape:collect="always"
       xlink:href="#linearGradient3988-5-7"
       id="radialGradient3986-1-3"
       gradientUnits="userSpaceOnUse"
       gradientTransform="matrix(11,0,0,10,-425,-99)"
       cx="42.5"
       cy="11"
       fx="42.5"
       fy="11"
       r="0.5" />
    <linearGradient
       id="linearGradient4613">
      <stop
         id="stop4615"
         offset="0"
         style="stop-color:#000000;stop-opacity:1;" />
      <stop
         style="stop-color:#000000;stop-opacity:0.70588237;"
         offset="0.60000002"
         id="stop4617" />
      <stop
         id="stop4619"
         offset="1"
         style="stop-color:#000000;stop-opacity:0;" />
    </linearGradient>
    <radialGradient
       r="0.5"
       fy="11"
       fx="42.5"
       cy="11"
       cx="42.5"
       gradientTransform="matrix(11,0,0,10,-424,-99)"
       gradientUnits="userSpaceOnUse"
       id="radialGradient4077-8-1"
       xlink:href="#linearGradient3976-2-0"
       inkscape:collect="always" />
    <linearGradient
       id="linearGradient4622">
      <stop
         style="stop-color:#ffffff;stop-opacity:1;"
         offset="0"
         id="stop4624" />
      <stop
         id="stop4626"
         offset="0.60000002"
         style="stop-color:#ffffff;stop-opacity:0.70588237;" />
      <stop
         style="stop-color:#ffffff;stop-opacity:0;"
         offset="1"
         id="stop4628" />
    </linearGradient>
    <linearGradient
       y2="28"
       x2="41"
       y1="1"
       x1="41"
       gradientUnits="userSpaceOnUse"
       id="linearGradient3077-4-9-4"
       xlink:href="#linearGradient3990-9-4-5"
       inkscape:collect="always"
       gradientTransform="translate(-2,-1)" />
    <linearGradient
       id="linearGradient3990-9-4-5">
      <stop
         id="stop3992-5-7-1"
         style="stop-color:#dbdbdb;stop-opacity:1"
         offset="0" />
      <stop
         id="stop3994-0-8-2"
         style="stop-color:#dbdbdb;stop-opacity:0"
         offset="1" />
    </linearGradient>
    <linearGradient
       y2="2"
       x2="48"
       y1="21"
       x1="48"
       gradientTransform="translate(-2,-1)"
       gradientUnits="userSpaceOnUse"
       id="linearGradient3228-0"
       xlink:href="#linearGradient3938-4-7"
       inkscape:collect="always" />
    <linearGradient
       id="linearGradient3938-4-7">
      <stop
         style="stop-color:#070723;stop-opacity:1;"
         offset="0"
         id="stop3940-9-2" />
      <stop
         style="stop-color:#070723;stop-opacity:1;"
         offset="1"
         id="stop3942-9-2" />
    </linearGradient>
    <linearGradient
       inkscape:collect="always"
       xlink:href="#linearGradient3921-5-9"
       id="linearGradient4617"
       gradientUnits="userSpaceOnUse"
       gradientTransform="matrix(-1,0,0,-1,64.499996,20.499994)"
       x1="40.8125"
       y1="18.499994"
       x2="40.8125"
       y2="0.49999401" />
    <linearGradient
       inkscape:collect="always"
       xlink:href="#linearGradient3921-5-9"
       id="linearGradient4621"
       gradientUnits="userSpaceOnUse"
       gradientTransform="matrix(-1,0,0,-1,64.499996,20.499994)"
       x1="40.8125"
       y1="18.499994"
       x2="40.8125"
       y2="0.49999401" />
  </defs>
  <metadata
     id="metadata3278">
    <rdf:RDF>
      <cc:Work
         rdf:about="">
        <dc:format>image/svg+xml</dc:format>
        <dc:type
           rdf:resource="http://purl.org/dc/dcmitype/StillImage" />
        <dc:title />
      </cc:Work>
    </rdf:RDF>
  </metadata>
  <g
     inkscape:groupmode="layer"
     id="layer1"
     inkscape:label="Trough">
    <path
       sodipodi:type="inkscape:offset"
       inkscape:radius="-1.0053965"
       inkscape:original="M 5 2 C 3.338 2 2 3.338 2 5 L 2 17 C 2 18.662 3.338 20 5 20 L 59 20 C 60.662 20 62 18.662 62 17 L 62 5 C 62 3.338 60.662 2 59 2 L 5 2 z "
       style="color:#000000;fill:url(#linearGradient4621);fill-opacity:1;stroke:none;stroke-width:0.99999994;marker:none;visibility:visible;display:inline;overflow:visible;enable-background:accumulate"
       id="path4619"
       d="M 5,3 C 3.8775991,3 3,3.8775991 3,5 l 0,12 c 0,1.122401 0.8775991,2 2,2 l 54,0 c 1.122401,0 2,-0.877599 2,-2 L 61,5 C 61,3.8775991 60.122401,3 59,3 L 5,3 z" />
    <path
       sodipodi:nodetypes="sssssssssccccc"
       inkscape:connector-curvature="0"
       style="opacity:0.08;color:#000000;fill:#000000;fill-opacity:1;stroke:none;stroke-width:0.99999994000000003;marker:none;visibility:visible;display:inline;overflow:visible;enable-background:accumulate"
       d="M 5,2 C 3.338,2 2,3.338 2,5 l 0,12 c 0,1.662 1.338,3 3,3 l 54,0 c 1.662,0 3,-1.338 3,-3 L 62,5 C 62,3.338 60.662,2 59,2 z m 0,3 54,0 0,12 -54,0 z"
       id="rect4052" />
    <path
       sodipodi:nodetypes="ssssssssssssssssss"
       inkscape:connector-curvature="0"
       style="opacity:0.12;color:#000000;fill:#000000;fill-opacity:1;stroke:none;stroke-width:0.99999994000000003;marker:none;visibility:visible;display:inline;overflow:visible;enable-background:accumulate"
       d="M 5,2 C 3.338,2 2,3.338 2,5 l 0,12 c 0,1.662 1.338,3 3,3 l 54,0 c 1.662,0 3,-1.338 3,-3 L 62,5 C 62,3.338 60.662,2 59,2 z m 0,2 54,0 c 0.5825,0 1,0.4175 1,1 l 0,12 c 0,0.5825 -0.4175,1 -1,1 L 5,18 C 4.4175,18 4,17.5825 4,17 L 4,5 C 4,4.4175 4.4175,4 5,4 z"
       id="rect4042" />
    <path
       sodipodi:nodetypes="ssssssssssssssssss"
       inkscape:connector-curvature="0"
       style="opacity:1;color:#000000;fill:#226ebf;fill-opacity:1;stroke:none;stroke-width:0.99999994000000003;marker:none;visibility:visible;display:inline;overflow:visible;enable-background:accumulate"
       d="M 5,2 C 3.338,2 2,3.338 2,5 l 0,12 c 0,1.662 1.338,3 3,3 l 54,0 c 1.662,0 3,-1.338 3,-3 L 62,5 C 62,3.338 60.662,2 59,2 z m 0,1 54,0 c 1.117387,0 2,0.882613 2,2 l 0,12 c 0,1.117387 -0.882613,2 -2,2 L 5,19 C 3.8826128,19 3,18.117387 3,17 L 3,5 C 3,3.882613 3.8826128,3 5,3 z"
       id="rect4038" />
    <g
       id="g4579">
      <rect
         style="opacity:0.5;color:#000000;fill:#000000;fill-opacity:1;fill-rule:nonzero;stroke:none;stroke-width:2;marker:none;visibility:visible;display:inline;overflow:visible;filter:url(#filter4199-9);enable-background:accumulate"
         id="rect4197"
         width="3"
         height="10"
         x="15"
         y="6.5" />
      <rect
         y="6"
         x="15"
         height="10"
         width="3"
         id="rect4195"
         style="color:#000000;fill:#070723;fill-opacity:1;fill-rule:nonzero;stroke:none;stroke-width:2;marker:none;visibility:visible;display:inline;overflow:visible;enable-background:accumulate" />
    </g>
  </g>
  <g
     inkscape:groupmode="layer"
     id="layer2"
     inkscape:label="Button"
     style="display:inline">
    <path
       sodipodi:type="inkscape:offset"
       inkscape:radius="0.94267464"
       inkscape:original="M 5 0 C 2.2642981 0 0 2.2642981 0 5 L 0 17 C 0 19.735702 2.2642982 22 5 22 L 29 22 C 31.735702 22 34 19.735702 34 17 L 34 5 C 34 2.2642982 31.735702 0 29 0 L 5 0 z "
       style="opacity:0.05;color:#000000;fill:#000000;fill-opacity:1;fill-rule:nonzero;stroke:none;stroke-width:2;marker:none;visibility:visible;display:inline;overflow:visible;enable-background:accumulate"
       id="path4541"
       d="m 5,-0.9375 c -3.25586,0 -5.9375,2.68164 -5.9375,5.9375 l 0,12 c 0,3.25586 2.6816401,5.9375 5.9375,5.9375 l 24,0 c 3.25586,0 5.9375,-2.68164 5.9375,-5.9375 l 0,-12 c 0,-3.2558599 -2.68164,-5.9375 -5.9375,-5.9375 l -24,0 z"
       transform="translate(30,0)" />
    <path
       sodipodi:type="inkscape:offset"
       inkscape:radius="1.0204744"
       inkscape:original="M 5 1.03125 C 2.8258474 1.03125 1.03125 2.8258474 1.03125 5 L 1.03125 17 C 1.03125 19.174153 2.8258474 20.96875 5 20.96875 L 29 20.96875 C 31.174153 20.96875 32.96875 19.174153 32.96875 17 L 32.96875 5 C 32.96875 2.8258474 31.174153 1.03125 29 1.03125 L 5 1.03125 z "
       style="opacity:0.1;color:#000000;fill:#000000;fill-opacity:1;fill-rule:nonzero;stroke:none;stroke-width:2;marker:none;visibility:visible;display:inline;overflow:visible;enable-background:accumulate"
       id="path4537"
       d="M 5,0 C 2.2642981,0 0,2.2642981 0,5 l 0,12 c 0,2.735702 2.2642982,5 5,5 l 24,0 c 2.735702,0 5,-2.264298 5,-5 L 34,5 C 34,2.2642982 31.735702,0 29,0 L 5,0 z"
       transform="translate(30,0)" />
    <path
       sodipodi:type="inkscape:offset"
       inkscape:radius="0.95425737"
       inkscape:original="M 5 2 C 3.338 2 2 3.338 2 5 L 2 17 C 2 18.662 3.338 20 5 20 L 29 20 C 30.662 20 32 18.662 32 17 L 32 5 C 32 3.338 30.662 2 29 2 L 5 2 z "
       style="opacity:0.2;color:#000000;fill:#000000;fill-opacity:1;fill-rule:nonzero;stroke:none;stroke-width:2;marker:none;visibility:visible;display:inline;overflow:visible;enable-background:accumulate"
       id="path4531"
       d="M 5,1.03125 C 2.8258474,1.03125 1.03125,2.8258474 1.03125,5 l 0,12 c 0,2.174153 1.7945974,3.96875 3.96875,3.96875 l 24,0 c 2.174153,0 3.96875,-1.794597 3.96875,-3.96875 l 0,-12 C 32.96875,2.8258474 31.174153,1.03125 29,1.03125 l -24,0 z"
       transform="translate(30,0)" />
    <rect
       style="color:#000000;fill:url(#linearGradient3228-0);fill-opacity:1;fill-rule:nonzero;stroke:none;stroke-width:2;marker:none;visibility:visible;display:inline;overflow:visible;enable-background:accumulate"
       id="rect3936"
       width="30.00001"
       height="18.00001"
       x="32"
       y="2"
       rx="3"
       ry="3" />
    <path
       style="opacity:0.6;color:#000000;fill:url(#linearGradient3077-4-9-4);fill-opacity:1;fill-rule:nonzero;stroke:none;stroke-width:2;marker:none;visibility:visible;display:inline;overflow:visible;enable-background:accumulate"
       d="m 35,2 c -1.662,0 -3,1.338 -3,3 l 0,12 c 0,1.662 1.338,3 3,3 l 24,0 c 1.662,0 3,-1.338 3,-3 L 62,5 C 62,3.338 60.662,2 59,2 z m 0,1 24,0 c 1.12561,0 2,0.8743885 2,2 l 0,12 c 0,1.125612 -0.87439,2 -2,2 l -24,0 c -1.125612,0 -2,-0.874388 -2,-2 L 33,5 c 0,-1.1256115 0.874388,-2 2,-2 z"
       id="rect4059"
       inkscape:connector-curvature="0"
       sodipodi:nodetypes="ssssssssssssssssss" />
  </g>
</svg>
